…
``` r
electric_fish <-read.csv(file = "chap12q19ElectricFish.csv")

fish_streams <-
  pivot_longer(electric_fish, speciesUpstream:speciesDownstream,
               names_to = "location",
               values_to = "species") %>%
            mutate(location = str_remove(location, c("species"))) %>%
  print()
```

    ## # A tibble: 24 x 3
    ##    tributary location   species
    ##    <chr>     <chr>        <int>
    ##  1 IÃ§Ã¡     Upstream        14
    ##  2 IÃ§Ã¡     Downstream      19
    ##  3 JutaÃ­     Upstream        11
    ##  4 JutaÃ­     Downstream      18
    ##  5 JapurÃ¡   Upstream         8
    ##  6 JapurÃ¡   Downstream       8
    ##  7 Coari     Upstream         5
    ##  8 Coari     Downstream       7
    ##  9 Purus     Upstream        10
    ## 10 Purus     Downstream      16
    ## # ... with 14 more rows
…
